{
	"name": "my-act",
	"actId": "Na7yqmJr3WWt6ckha",
	"version": {
		"versionNumber": "0.1",
		"buildTag": "latest",
		"envVars": [],
		"sourceType": "TARBALL",
		"tarballUrl": null
	},
	"template": "basic"
}
